{"patrons": [
  {"url": "http://www.us.edu.pl/", "logoPath": "img/banners/us-banner.png", "altText": "Logo UŚ"},
  {"url": "http://w3.mfc.us.edu.pl/", "logoPath": "img/banners/wmfich-banner.jpg", "altText": "Logo WMFiCh"},
  {"url": "http://if.us.edu.pl/index.php/pl/", "logoPath": "img/banners/if-banner.png", "altText": "Logo IF"},
  {"url": "http://www.um.zabrze.pl/", "logoPath": "img/banners/zabrze-banner.png", "altText": "Logo miasta Zabrze"},
  {"url": "http://www.smcebi.us.edu.pl/", "logoPath": "img/banners/smcebi-banner.png", "altText": "Logo SMCEBI"},
  {"url": "http://www.studenci.us.edu.pl/", "logoPath": "img/banners/ss-banner.png", "altText": "Logo samorządu"},
  {"url": "http://www.kopalniaguido.pl/", "logoPath": "img/banners/guido-logo.png", "altText": "Logo Guido"},
  {"url": "http://www.sybet.pl/", "logoPath": "img/banners/sybet-banner.png", "altText": "Logo Sybetu"},
  {"url": "http://www.ptf.net.pl/", "logoPath": "img/banners/ptf-logo.jpg", "altText": "Logo PTF"},
  {"url": "http://www.fedraa.pl/", "logoPath": "img/banners/fedraa-logo.jpg", "altText": "Logo FEDRAA"}
]}
